<svg width="20" height="20" viewBox="0 0 20 20" fill="none" xmlns="http://www.w3.org/2000/svg">
<path fill-rule="evenodd" clip-rule="evenodd" d="M17.2222 20C18.7567 20 20 18.7567 20 17.2222V2.77778C20 1.24333 18.7567 0 17.2222 0H2.77778C1.24389 0 0 1.24333 0 2.77778V17.2222C0 18.7567 1.24389 20 2.77778 20H17.2222ZM6.11111 7.22222H3.33333V16.6667H6.11111V7.22222ZM4.69833 6.11111H4.71389C5.575 6.11111 6.11111 5.49278 6.11111 4.72167C6.09556 3.93333 5.575 3.33333 4.73 3.33333C3.88611 3.33333 3.33333 3.93333 3.33333 4.72167C3.33333 5.49333 3.86944 6.11111 4.69833 6.11111ZM13.8889 16.6667H16.6667L16.6661 11.2633C16.6661 8.47222 15.1756 7.22222 13.1878 7.22222C11.5833 7.22222 10.9561 8.05555 10.5556 8.67555V7.22222H7.77778V16.6667H10.5556V11.6667C10.5556 11.6203 10.5549 11.5662 10.5541 11.5074C10.5504 11.2215 10.5453 10.824 10.6117 10.6628C10.8306 10.1194 11.2817 9.55722 12.1156 9.55722C13.2083 9.55722 13.8889 10.3906 13.8889 11.6117V16.6667Z" fill="#E1E0E6"/>
</svg>
